Simple Features Data
…
wyoming

Simple feature collection with 1 feature and 1 field
Geometry type: POLYGON
Dimension:     XY
Bounding box:  xmin: -111.0546 ymin: 40.99477 xmax: -104.0522 ymax: 45.00582
Geodetic CRS:  WGS 84
# A tibble: 1 × 2
  NAME                                                                  geometry
  <chr>                                                            <POLYGON [°]>
1 Wyoming ((-106.3212 40.99912, -106.3262 40.99927, -106.3265 40.99927, -106.33…

wyoming_coordinates

# A tibble: 8,583 × 2
   longitude latitude
       <dbl>    <dbl>
 1 -106.3212 40.99912
 2 -106.3262 40.99927
 3 -106.3265 40.99927
 4 -106.3382 40.99953
 5 -106.3414 40.99957
 6 -106.3464 40.99964
 7 -106.3514 40.99997
 8 -106.3540 40.99997
 9 -106.3588 41.00014
10 -106.3756 41.00072
# ℹ 8,573 more rows
…
