Mapping with ggplot
…
Get Data

library(tidyverse)
library(tidycensus)
library(janitor)
library(sf)

load_variables(
  year = 2023,
  dataset = "acs5/subject",
  cache = TRUE
) |>
  filter(str_detect(name, "S1601"))

# A tibble: 144 × 3
   name          label                                                   concept
   <chr>         <chr>                                                   <chr>  
 1 S1601_C01_001 Estimate!!Total!!Population 5 years and over            Langua…
 2 S1601_C01_002 Estimate!!Total!!Population 5 years and over!!Speak on… Langua…
 3 S1601_C01_003 Estimate!!Total!!Population 5 years and over!!Speak a … Langua…
 4 S1601_C01_004 Estimate!!Total!!Population 5 years and over!!SPEAK A … Langua…
 5 S1601_C01_005 Estimate!!Total!!Population 5 years and over!!SPEAK A … Langua…
 6 S1601_C01_006 Estimate!!Total!!Population 5 years and over!!SPEAK A … Langua…
 7 S1601_C01_007 Estimate!!Total!!Population 5 years and over!!SPEAK A … Langua…
 8 S1601_C01_008 Estimate!!Total!!Population 5 years and over!!SPEAK A … Langua…
 9 S1601_C01_009 Estimate!!Total!!Population 5 years and over!!SPEAK A … Langua…
10 S1601_C01_010 Estimate!!Total!!Population 5 years and over!!SPEAK A … Langua…
# ℹ 134 more rows

get_acs(
  geography = "county",
  variable = "S1601_C01_003",
  summary_var = "S1601_C01_001"
)

# A tibble: 3,222 × 7
   GEOID NAME                    variable estimate   moe summary_est summary_moe
   <chr> <chr>                   <chr>       <dbl> <dbl>       <dbl>       <dbl>
 1 01001 Autauga County, Alabama S1601_C…     2123   475       56328         155
 2 01003 Baldwin County, Alabama S1601_C…    13881  1637      234403          48
 3 01005 Barbour County, Alabama S1601_C…     1697   229       23314          85
 4 01007 Bibb County, Alabama    S1601_C…      454   174       21038         162
 5 01009 Blount County, Alabama  S1601_C…     4670   359       56148          78
 6 01011 Bullock County, Alabama S1601_C…      554    71        9515          64
 7 01013 Butler County, Alabama  S1601_C…      541   155       17590          16
 8 01015 Calhoun County, Alabama S1601_C…     4296   591      109532         148
 9 01017 Chambers County, Alaba… S1601_C…     1171   264       32278         169
10 01019 Cherokee County, Alaba… S1601_C…      636   216       24263          57
# ℹ 3,212 more rows
…
