Making Dot and Bubble Maps with ggplot
…
oregon_places <-
  read_sf("data/oregon_places.geojson")

Dot Maps

Dot Maps

oregon_places

Simple feature collection with 426 features and 2 fields
Geometry type: POINT
Dimension:     XY
Bounding box:  xmin: -124.4975 ymin: 42.00142 xmax: -116.9754 ymax: 46.18564
Geodetic CRS:  NAD83
# A tibble: 426 × 3
   name                     population             geometry
   <chr>                         <dbl>          <POINT [°]>
 1 Halfway city, Oregon            351 (-117.1097 44.87806)
 2 Lostine city, Oregon            241 (-117.4294 45.48663)
 3 Antelope city, Oregon            37 (-120.7236 44.91126)
 4 Wasco city, Oregon              417 (-120.6974 45.59165)
 5 Lake Oswego city, Oregon      40731 (-122.7004 45.41288)
 6 Salem city, Oregon           175535 (-123.0244 44.92323)
 7 Mitchell city, Oregon           138 (-120.1537 44.57029)
 8 Tangent city, Oregon           1231 (-123.1111 44.54771)
 9 Cove city, Oregon               620 (-117.8102 45.29644)
10 Gaston city, Oregon             676 (-123.1449 45.43481)
# ℹ 416 more rows
…
